Suma:
4 + 1 = 41
4 + 2 = 42
4 + 3 = 43
4 + 4 = 44
4 + 5 = 45
4 + 6 = 46
4 + 7 = 47
4 + 8 = 48
4 + 9 = 49
4 + 10 = 410

Resta:
4 - 1 = 3
4 - 2 = 2
4 - 3 = 1
4 - 4 = 0
4 - 5 = -1
4 - 6 = -2
4 - 7 = -3
4 - 8 = -4
4 - 9 = -5
4 - 10 = -6

Multiplicacion:
4 x 1 = 4
4 x 2 = 8
4 x 3 = 12
4 x 4 = 16
4 x 5 = 20
4 x 6 = 24
4 x 7 = 28
4 x 8 = 32
4 x 9 = 36
4 x 10 = 40

Division:
4 / 1 = 4
4 / 2 = 2
4 / 3 = 1.3333333333333333
4 / 4 = 1
4 / 5 = 0.8
4 / 6 = 0.6666666666666666
4 / 7 = 0.5714285714285714
4 / 8 = 0.5
4 / 9 = 0.4444444444444444
4 / 10 = 0.4
